
      __       __   ___       __       ___      ___ 			
     /  \     |/ | /   )     /  \     |   \    /   |		
    /    \    |: |/   /     /    \     \   \  //   |		
   /' /\  \   |    __/     /' /\  \    /\\  \/.    |	
  //  __'  \  |// _  \    //  __'  \  |: \.        |		
 /   /  \\  \ |: | \  \  /   /  \\  \ |.  \    /:  |
(___/    \___)|__|  \__)(___/    \___)|___|\__/|___|
Version:1.0.0                        Copy right 2019

--------------------------------------------------------------------------